Attempt: 0 Results: Discrete Frétchet Distance: 4.12310562561766, 
Attempt: 0 Results: Discrete Frétchet Distance: 4.12310562561766, 
Attempt: 0 Results: Discrete Frétchet Distance: 4.12310562561766, 
Attempt: 0 Results: Discrete Frétchet Distance: 4.12310562561766, 
